[
  {
    "id": 10001,
    "grup": 1000,
    "name": "HP (+4780 > R5LV21)"
  },
  {
    "id": 10002,
    "grup": 1000,
    "name": "HP (46.60% > R5LV21)"
  },
  {
    "id": 10003,
    "grup": 1000,
    "name": "Сила атаки (+311 > R5LV21)"
  },
  {
    "id": 10004,
    "grup": 1000,
    "name": "Сила атаки (46.60% > R5LV21)"
  },
  {
    "id": 10005,
    "grup": 1000,
    "name": "Защита (+741 > R5LV21)"
  },
  {
    "id": 10006,
    "grup": 1000,
    "name": "Защита (58.30% > R5LV21)"
  },
  {
    "id": 10007,
    "grup": 1000,
    "name": "Восст. энергии (51.80% > R5LV21)"
  },
  {
    "id": 10008,
    "grup": 1000,
    "name": "Мастерство стихий (+186 > R5LV21)"
  },
  {
    "id": 10009,
    "grup": 1000,
    "name": "Пиро сопротивление (50.00% > R5LV21)"
  },
  {
    "id": 12001,
    "grup": 2000,
    "name": "Сила атаки (+311 > R5LV21)"
  },
  {
    "id": 13001,
    "grup": 3000,
    "name": "HP (+4780 > R5LV21)"
  },
  {
    "id": 13002,
    "grup": 3000,
    "name": "HP (46.60% > R5LV21)"
  },
  {
    "id": 13003,
    "grup": 3000,
    "name": "Сила атаки (+311 > R5LV21)"
  },
  {
    "id": 13004,
    "grup": 3000,
    "name": "Сила атаки (46.60% > R5LV21)"
  },
  {
    "id": 13005,
    "grup": 3000,
    "name": "Защита (+741 > R5LV21)"
  },
  {
    "id": 13006,
    "grup": 3000,
    "name": "Защита (58.30% > R5LV21)"
  },
  {
    "id": 13007,
    "grup": 3000,
    "name": "Шанс крит. попадания (31.10% > R5LV21)"
  },
  {
    "id": 13008,
    "grup": 3000,
    "name": "Крит. урон (62.20% > R5LV21)"
  },
  {
    "id": 13009,
    "grup": 3000,
    "name": "Бонус лечения (35.90% > R5LV21)"
  },
  {
    "id": 13010,
    "grup": 3000,
    "name": "Мастерство стихий (+186 > R5LV21)"
  },
  {
    "id": 14001,
    "grup": 4000,
    "name": "HP (+4780 > R5LV21)"
  },
  {
    "id": 15001,
    "grup": 5000,
    "name": "HP (+4780 > R5LV21)"
  },
  {
    "id": 15002,
    "grup": 5000,
    "name": "HP (46.60% > R5LV21)"
  },
  {
    "id": 15003,
    "grup": 5000,
    "name": "Сила атаки (+311 > R5LV21)"
  },
  {
    "id": 15004,
    "grup": 5000,
    "name": "Сила атаки (46.60% > R5LV21)"
  },
  {
    "id": 15005,
    "grup": 5000,
    "name": "Защита (+741 > R5LV21)"
  },
  {
    "id": 15006,
    "grup": 5000,
    "name": "Защита (58.30% > R5LV21)"
  },
  {
    "id": 15007,
    "grup": 5000,
    "name": "Мастерство стихий (+186 > R5LV21)"
  },
  {
    "id": 15008,
    "grup": 5000,
    "name": "Бонус Пиро урона (46.60% > R5LV21)"
  },
  {
    "id": 15009,
    "grup": 5000,
    "name": "Бонус Электро урона (46.60% > R5LV21)"
  },
  {
    "id": 15010,
    "grup": 5000,
    "name": "Бонус Крио урона (46.60% > R5LV21)"
  },
  {
    "id": 15011,
    "grup": 5000,
    "name": "Бонус Гидро урона (46.60% > R5LV21)"
  },
  {
    "id": 15012,
    "grup": 5000,
    "name": "Бонус Анемо урона (46.60% > R5LV21)"
  },
  {
    "id": 15013,
    "grup": 5000,
    "name": "Бонус Гео урона (46.60% > R5LV21)"
  },
  {
    "id": 15014,
    "grup": 5000,
    "name": "Бонус Дендро урона (46.60% > R5LV21)"
  },
  {
    "id": 15015,
    "grup": 5000,
    "name": "Бонус физ. урона (58.30% > R5LV21)"
  },
  {
    "id": 10990,
    "grup": 1099,
    "name": "Сила атаки (46.60% > R5LV21)"
  },
  {
    "id": 10980,
    "grup": 1098,
    "name": "HP (46.60% > R5LV21)"
  },
  {
    "id": 10970,
    "grup": 1097,
    "name": "Защита (58.30% > R5LV21)"
  },
  {
    "id": 10960,
    "grup": 1096,
    "name": "Восст. энергии (51.80% > R5LV21)"
  },
  {
    "id": 10950,
    "grup": 1095,
    "name": "Мастерство стихий (+186 > R5LV21)"
  },
  {
    "id": 30990,
    "grup": 3099,
    "name": "Сила атаки (46.60% > R5LV21)"
  },
  {
    "id": 30980,
    "grup": 3098,
    "name": "HP (46.60% > R5LV21)"
  },
  {
    "id": 30970,
    "grup": 3097,
    "name": "Защита (58.30% > R5LV21)"
  },
  {
    "id": 30960,
    "grup": 3096,
    "name": "Шанс крит. попадания (31.10% > R5LV21)"
  },
  {
    "id": 30950,
    "grup": 3095,
    "name": "Крит. урон (62.20% > R5LV21)"
  },
  {
    "id": 30940,
    "grup": 3094,
    "name": "Бонус лечения (35.90% > R5LV21)"
  },
  {
    "id": 30930,
    "grup": 3093,
    "name": "Мастерство стихий (+186 > R5LV21)"
  },
  {
    "id": 50990,
    "grup": 5099,
    "name": "Сила атаки (46.60% > R5LV21)"
  },
  {
    "id": 50980,
    "grup": 5098,
    "name": "HP (46.60% > R5LV21)"
  },
  {
    "id": 50970,
    "grup": 5097,
    "name": "Защита (58.30% > R5LV21)"
  },
  {
    "id": 50960,
    "grup": 5096,
    "name": "Бонус Пиро урона (46.60% > R5LV21)"
  },
  {
    "id": 50950,
    "grup": 5095,
    "name": "Бонус Электро урона (46.60% > R5LV21)"
  },
  {
    "id": 50940,
    "grup": 5094,
    "name": "Бонус Крио урона (46.60% > R5LV21)"
  },
  {
    "id": 50930,
    "grup": 5093,
    "name": "Бонус Гидро урона (46.60% > R5LV21)"
  },
  {
    "id": 50920,
    "grup": 5092,
    "name": "Бонус Анемо урона (46.60% > R5LV21)"
  },
  {
    "id": 50910,
    "grup": 5091,
    "name": "Бонус Гео урона (46.60% > R5LV21)"
  },
  {
    "id": 50900,
    "grup": 5090,
    "name": "Бонус Дендро урона (46.60% > R5LV21)"
  },
  {
    "id": 50890,
    "grup": 5089,
    "name": "Бонус физ. урона (58.30% > R5LV21)"
  },
  {
    "id": 50880,
    "grup": 5088,
    "name": "Мастерство стихий (+186 > R5LV21)"
  }
]